{
  "leiApp": {
    "leiStorage": {
      "messages": {
        "validate": {
          "registrationNumber": {
            "required": "Registration Number is required for both save and submission."
          }
        }
      },
      "home": {
        "title": "Records",
        "description": "Below are the records you have either registered, or renewed. The records are presented in order by the records approaching their Next Renewal Date.",
        "create": "Create LEI Application",
        "createLabel": "Create a new LEI",
        "createOrEditLabel": "Create or edit a LEI",
        "search": "Search for LEI",
        "leidbtitle": "SEARCH"
      },
      "created": "New LEI record [{{ param }}] is created",
      "updated": "LEI record [{{ param }}] is updated",
      "deleted": "LEI record [{{ param }}] is deleted",
      "archived": "LEI record [{{ param }}] is archived",
      "uploaded": "LEI list is updated by {{ param }} records",
      "delete": {
        "question": "Are you sure you want to delete LEI record {{ param }}?"
      },
      "confirm": {
        "question": "The customer has not agreed to all T&C and additional confirmations are required from the customer.<br>\n Are you sure you want to continue?"
      },
      "archive": {
        "question": "Are you sure you want to archive LEI record {{ param }}?"
      },
      "detail": {
        "title": "LEI list"
      },
      "storageDate": "Storage Date",
      "modificationDate": "Modification Date",
      "renewalDate": "Next Renewal Date",
      "legalName": "Legal Name",
      "leiIdentifier": "LEI",
      "leiIdentifierCountry": "LEI, Country",
      "registrationNumber": "Reg. Nr.",
      "leiStatus": "Registration Status",
      "leiStatusShort": "Status",
      "city": "City",
      "country": "Country",
      "submitDate": "Submit Date",
      "submitDateShort": "Submit",
      "nextRenewalDate": "Next Renewal Date",
      "nextRenewalDateShort": "Renewal",
      "isPaid": "Paid",
      "isLeiDataValidated": "Valid",
      "isSubmitterValidated": "Submitter",
      "areOtherFlags": "Actions",
      "legalForm": "Legal Form",
      "idForVat": "VAT ID",
      "user": "User",
      "attachment": "Please use the below section to upload any supporting documents that you may deem relevant to your submission. (This may include documents such as your company Certificate of Incorporation, or a corporate filing as it may be requested later). Maximum size of all files: 16 MB.",
      "attachment.placeholder": "Attachment",
      "attachment.open.placeholder": "Open attachment file",
      "attachment.remove.placeholder": "Remove attachment file",
      "transferRequest": {
        "sent": "lou-informed",
        "notSent": "lou-not-informed"
      },
      "leiAssignment": "Assigned"
    }
  }
}
