{
  "login": {
    "title": "Sign In",
    "titleNcsd": "NCSD Login",
    "form": {
      "password": "Password",
      "password.placeholder": "Your password",
      "rememberme": "Remember me",
      "button": "Login",
      "button.eid": "Authenticate with eID"
    },
    "dialog": {
      "title": "Two-factor authentication required",
      "authcode": "Google Authenticator code",
      "authcode.placeholder": "Actual code",
      "button": "Login"
    },
    "messages": {
      "error": {
        "authentication": "<strong>Failed to sign in!</strong> Please check your credentials and try again.",
        "linkNotValid": "<strong>Requested action failed!</strong> Link is not valid. Please first try to login.",
        "userNotActivated": "<strong>Failed to sign in!</strong> User not activated. Please proceed confirmation email with QR code.",
        "userNotFound": "<strong>Failed to sign in!</strong> User not found. Please register or try another.",
        "timeout": "<strong>Your session timed out!</strong> Please try to login again.",
        "expired": "<strong>Your session expired!</strong> Please try to login again.",
        "invalidated": "<strong>New session identified!</strong> You've logged out automatically."
      },
      "warning": {
        "authentication": "<strong>Previous session(s) detected!</strong> All previous session(s) are invalidated. Please continue to use this session."
      }
    },
    "password": {
      "forgot": "Forgot password?",
      "reset": "Reset"
    }
  },
  "login-auth": {
    "title": "2-Factor Authentication",
    "titleNcsd": "NCSD Login - 2-Factor",
    "form": {
      "authcode": "Google Authenticator code",
      "authcode.placeholder": "Actual code",
      "button": "Login",
      "email": "Request one time token via email",
      "emailcode": "Please enter your one time code you received by email",
      "emailcode.placeholder": "Verification code"
    }
  }
}
